{"events":[{"id":521157,"global_id":"www.law.georgetown.edu?id=521157","global_id_lineage":["www.law.georgetown.edu?id=521157"],"author":"15813","status":"publish","date":"2024-12-12 09:58:20","date_utc":"2024-12-12 14:58:20","modified":"2024-12-12 10:01:13","modified_utc":"2024-12-12 15:01:13","url":"https:\/\/www.law.georgetown.edu\/event\/bay-area-alumni-reception-featuring-a-fireside-chat-with-dean-treanor-and-halimah-delaine-prado-l00\/","rest_url":"https:\/\/www.law.georgetown.edu\/wp-json\/tribe\/events\/v1\/events\/521157","title":"Bay Area Alumni Reception featuring a Fireside Chat with Dean Treanor and Halimah DeLaine Prado, L&#8217;00","description":"<p>Join us for a fireside chat with Georgetown Law Dean William M. Treanor and Halimah DeLaine Prado, L&#8217;00, General Counsel at Google. Hear insights from Halimah on her career and the legal challenges of the digital age, followed by a networking reception with light fare and drinks.<\/p>\n<p><strong>About Halimah DeLaine Prado, L&#8217;00<\/strong><br \/>\nAs General Counsel at Google, Halimah leads the company\u2019s legal team through complex global issues. She earned her J.D. from Georgetown Law and her undergraduate degree from Yale University.<\/p>\n<p>We look forward to seeing you there!<\/p>","excerpt":"","slug":"bay-area-alumni-reception-featuring-a-fireside-chat-with-dean-treanor-and-halimah-delaine-prado-l00","image":false,"all_day":false,"start_date":"2025-01-09 18:00:00","start_date_details":{"year":"2025","month":"01","day":"09","hour":"18","minutes":"00","seconds":"00"},"end_date":"2025-01-09 20:00:00","end_date_details":{"year":"2025","month":"01","day":"09","hour":"20","minutes":"00","seconds":"00"},"utc_start_date":"2025-01-10 02:00:00","utc_start_date_details":{"year":"2025","month":"01","day":"10","hour":"02","minutes":"00","seconds":"00"},"utc_end_date":"2025-01-10 04:00:00","utc_end_date_details":{"year":"2025","month":"01","day":"10","hour":"04","minutes":"00","seconds":"00"},"timezone":"UTC-8","timezone_abbr":"UTC-8","cost":"","cost_details":{"currency_symbol":"","currency_code":"","currency_position":"","values":[]},"website":"","show_map":true,"show_map_link":true,"hide_from_listings":false,"sticky":false,"featured":false,"categories":[{"name":"Alumni","slug":"alumni","term_group":0,"term_taxonomy_id":321,"taxonomy":"tribe_events_cat","description":"","parent":0,"count":101,"filter":"raw","order":"2","id":320,"urls":{"self":"https:\/\/www.law.georgetown.edu\/wp-json\/tribe\/events\/v1\/categories\/320","collection":"https:\/\/www.law.georgetown.edu\/wp-json\/tribe\/events\/v1\/categories"}}],"tags":[],"venue":{"id":521159,"author":"15813","status":"publish","date":"2024-12-12 09:58:21","date_utc":"2024-12-12 14:58:21","modified":"2024-12-12 09:58:21","modified_utc":"2024-12-12 14:58:21","url":"https:\/\/www.law.georgetown.edu\/venue\/baker-mckenzie\/","venue":"Baker McKenzie","slug":"baker-mckenzie","address":"Two Embarcadero Center, Suite 1100","city":"San Francisco","country":"United States","state":"CA","stateprovince":"CA","show_map":false,"show_map_link":false,"global_id":"www.law.georgetown.edu?id=521159","global_id_lineage":["www.law.georgetown.edu?id=521159"]},"organizer":[{"id":153649,"author":"4761","status":"publish","date":"2021-02-04 13:58:38","date_utc":"2021-02-04 18:58:38","modified":"2021-07-19 12:05:22","modified_utc":"2021-07-19 16:05:22","url":"https:\/\/www.law.georgetown.edu\/organizer\/alumni-affairs-law\/","organizer":"Alumni Affairs &#8211; Law","slug":"alumni-affairs-law","website":"https:\/\/www.law.georgetown.edu\/alumni\/reunion\/","global_id":"www.law.georgetown.edu?id=153649","global_id_lineage":["www.law.georgetown.edu?id=153649"]}],"custom_fields":{"_ecp_custom_2":{"label":"Registration Link","value":"https:\/\/docs.google.com\/forms\/d\/e\/1FAIpQLSc83tdSHIN53YYX1BWz8n_NIw9cAbpzexqNIFMxr4m3brvvPw\/viewform"}},"ticketed":false,"is_virtual":false,"virtual_url":null,"virtual_video_source":""},{"id":522453,"global_id":"www.law.georgetown.edu?id=522453","global_id_lineage":["www.law.georgetown.edu?id=522453"],"author":"2370","status":"publish","date":"2025-01-07 15:13:04","date_utc":"2025-01-07 20:13:04","modified":"2025-01-07 15:15:20","modified_utc":"2025-01-07 20:15:20","url":"https:\/\/www.law.georgetown.edu\/event\/faculty-installation-ceremony-and-celebration-2\/","rest_url":"https:\/\/www.law.georgetown.edu\/wp-json\/tribe\/events\/v1\/events\/522453","title":"Faculty Installation Ceremony and Celebration","description":"<p>All Georgetown Law faculty and staff are invited to celebrate the installation of five new professorships. Join us to honor:<\/p>\n<p><strong>Brian Galle, L\u201906<\/strong><br \/>\nAgnes Williams Sesquicentennial Professor of Tax Policy<\/p>\n<p><strong>Kristelia Garc\u00eda<\/strong><br \/>\nLeo George Professor of Communications, Entertainment, and New Media<\/p>\n<p><strong>Maria Glover<\/strong><br \/>\nCarmack Waterhouse Professor of Law<\/p>\n<p><strong>Urska Velikonja<\/strong><br \/>\nJ. Crilley Kelly and Terry Curtin Kelly Professor of Business Law<\/p>\n<p><strong>Stephen I. Vladeck<\/strong><br \/>\nAgnes Williams Sesquicentennial Professor of Federal Courts<\/p>\n<p><em>A reception will follow the ceremony.<\/em><\/p>","excerpt":"","slug":"faculty-installation-ceremony-and-celebration-2","image":{"url":"https:\/\/www.law.georgetown.edu\/wp-content\/uploads\/2025\/01\/Professorship-Advertising.jpg","id":522456,"extension":"jpg","width":300,"height":200,"filesize":18931,"sizes":{"thumbnail":{"width":150,"height":150,"mime-type":"image\/jpeg","filesize":6704,"url":"https:\/\/www.law.georgetown.edu\/wp-content\/uploads\/2025\/01\/Professorship-Advertising-150x150.jpg"},"ultrawide-xxsml":{"width":300,"height":129,"mime-type":"image\/jpeg","filesize":10451,"url":"https:\/\/www.law.georgetown.edu\/wp-content\/uploads\/2025\/01\/Professorship-Advertising-300x129.jpg"},"wide-xxsml":{"width":300,"height":169,"mime-type":"image\/jpeg","filesize":12819,"url":"https:\/\/www.law.georgetown.edu\/wp-content\/uploads\/2025\/01\/Professorship-Advertising-300x169.jpg"},"square-thumb":{"width":100,"height":100,"mime-type":"image\/jpeg","filesize":4078,"url":"https:\/\/www.law.georgetown.edu\/wp-content\/uploads\/2025\/01\/Professorship-Advertising-100x100.jpg"},"portrait-full-xxsml":{"width":225,"height":200,"mime-type":"image\/jpeg","filesize":11978,"url":"https:\/\/www.law.georgetown.edu\/wp-content\/uploads\/2025\/01\/Professorship-Advertising-225x200.jpg"},"portrait-classic-xxsml":{"width":200,"height":200,"mime-type":"image\/jpeg","filesize":10609,"url":"https:\/\/www.law.georgetown.edu\/wp-content\/uploads\/2025\/01\/Professorship-Advertising-200x200.jpg"}}},"all_day":false,"start_date":"2025-01-15 16:00:00","start_date_details":{"year":"2025","month":"01","day":"15","hour":"16","minutes":"00","seconds":"00"},"end_date":"2025-01-15 17:30:00","end_date_details":{"year":"2025","month":"01","day":"15","hour":"17","minutes":"30","seconds":"00"},"utc_start_date":"2025-01-15 21:00:00","utc_start_date_details":{"year":"2025","month":"01","day":"15","hour":"21","minutes":"00","seconds":"00"},"utc_end_date":"2025-01-15 22:30:00","utc_end_date_details":{"year":"2025","month":"01","day":"15","hour":"22","minutes":"30","seconds":"00"},"timezone":"America\/New_York","timezone_abbr":"EST","cost":"","cost_details":{"currency_symbol":"$","currency_code":"USD","currency_position":"prefix","values":[]},"website":"","show_map":true,"show_map_link":true,"hide_from_listings":false,"sticky":false,"featured":false,"categories":[{"name":"Campus Life &amp; Wellness","slug":"campus-life-and-wellness","term_group":0,"term_taxonomy_id":322,"taxonomy":"tribe_events_cat","description":"","parent":0,"count":82,"filter":"raw","order":"3","id":321,"urls":{"self":"https:\/\/www.law.georgetown.edu\/wp-json\/tribe\/events\/v1\/categories\/321","collection":"https:\/\/www.law.georgetown.edu\/wp-json\/tribe\/events\/v1\/categories"}}],"tags":[],"venue":{"id":245262,"author":"4761","status":"publish","date":"2021-09-16 14:35:52","date_utc":"2021-09-16 18:35:52","modified":"2021-09-16 14:35:52","modified_utc":"2021-09-16 18:35:52","url":"https:\/\/www.law.georgetown.edu\/venue\/hotung-2nd-floor-lobby\/","venue":"Hotung 2nd Floor Lobby","slug":"hotung-2nd-floor-lobby","show_map":true,"show_map_link":true,"global_id":"www.law.georgetown.edu?id=245262","global_id_lineage":["www.law.georgetown.edu?id=245262"]},"organizer":[{"id":135628,"author":"4761","status":"publish","date":"2020-11-10 11:16:41","date_utc":"2020-11-10 16:16:41","modified":"2020-11-10 11:16:41","modified_utc":"2020-11-10 16:16:41","url":"https:\/\/www.law.georgetown.edu\/organizer\/georgetown-law-office-of-event-management\/","organizer":"Georgetown Law Office of Event Management","slug":"georgetown-law-office-of-event-management","website":"https:\/\/www.law.georgetown.edu\/your-life-career\/campus-services\/office-of-special-events\/","email":"lawrsvp@georgetown.edu","global_id":"www.law.georgetown.edu?id=135628","global_id_lineage":["www.law.georgetown.edu?id=135628"]}],"custom_fields":{"_ecp_custom_2":{"label":"Registration Link","value":"https:\/\/docs.google.com\/forms\/d\/e\/1FAIpQLSfgJwasFB4N-E8H1yMR6rFmheRUmcLO0rMJHc37zexyv5lAiA\/viewform?usp=dialog"}},"ticketed":false,"is_virtual":false,"virtual_url":null,"virtual_video_source":""},{"id":522766,"global_id":"www.law.georgetown.edu?id=522766","global_id_lineage":["www.law.georgetown.edu?id=522766"],"author":"11482","status":"publish","date":"2025-01-14 16:13:47","date_utc":"2025-01-14 21:13:47","modified":"2025-01-14 16:13:47","modified_utc":"2025-01-14 21:13:47","url":"https:\/\/www.law.georgetown.edu\/event\/intelligence-law-emerging-issues-in-cyberspace\/","rest_url":"https:\/\/www.law.georgetown.edu\/wp-json\/tribe\/events\/v1\/events\/522766","title":"Intelligence Law: Emerging Issues In Cyberspace","description":"<p><span style=\"font-weight: 400;\">Join Prof. Laura K. Donohue and CAPT Peter P. Pascucci (Georgetown Law LLM\u201915) for a discussion on how new and emerging threats, actors, and technologies are changing the face of SIGINT and transforming how we think about Cyberspace.\u00a0<\/span><\/p>\n<p><span style=\"font-weight: 400;\">Lunch will be served.<\/span><\/p>","excerpt":"","slug":"intelligence-law-emerging-issues-in-cyberspace","image":false,"all_day":false,"start_date":"2025-01-22 12:00:00","start_date_details":{"year":"2025","month":"01","day":"22","hour":"12","minutes":"00","seconds":"00"},"end_date":"2025-01-22 13:15:00","end_date_details":{"year":"2025","month":"01","day":"22","hour":"13","minutes":"15","seconds":"00"},"utc_start_date":"2025-01-22 17:00:00","utc_start_date_details":{"year":"2025","month":"01","day":"22","hour":"17","minutes":"00","seconds":"00"},"utc_end_date":"2025-01-22 18:15:00","utc_end_date_details":{"year":"2025","month":"01","day":"22","hour":"18","minutes":"15","seconds":"00"},"timezone":"America\/New_York","timezone_abbr":"EST","cost":"","cost_details":{"currency_symbol":"","currency_code":"","currency_position":"","values":[]},"website":"","show_map":true,"show_map_link":true,"hide_from_listings":false,"sticky":false,"featured":false,"categories":[{"name":"Centers &amp; Institutes","slug":"centers-institutes","term_group":0,"term_taxonomy_id":213,"taxonomy":"tribe_events_cat","description":"","parent":0,"count":413,"filter":"raw","order":"5","id":212,"urls":{"self":"https:\/\/www.law.georgetown.edu\/wp-json\/tribe\/events\/v1\/categories\/212","collection":"https:\/\/www.law.georgetown.edu\/wp-json\/tribe\/events\/v1\/categories"}}],"tags":[],"venue":{"id":403343,"status":"publish","date":"2023-04-17 18:13:14","date_utc":"0000-00-00 00:00:00","modified":"2023-04-17 18:13:14","modified_utc":"2023-04-17 22:13:14","url":"https:\/\/www.law.georgetown.edu\/venue\/","venue":"500 First St NW, 9th Floor","show_map":true,"show_map_link":true,"global_id":"www.law.georgetown.edu?id=403343","global_id_lineage":["www.law.georgetown.edu?id=403343"]},"organizer":[{"id":153671,"author":"4761","status":"publish","date":"2021-02-04 13:58:42","date_utc":"2021-02-04 18:58:42","modified":"2021-02-04 13:58:42","modified_utc":"2021-02-04 18:58:42","url":"https:\/\/www.law.georgetown.edu\/organizer\/center-on-national-security-and-the-law\/","organizer":"Center on National Security and the Law","slug":"center-on-national-security-and-the-law","global_id":"www.law.georgetown.edu?id=153671","global_id_lineage":["www.law.georgetown.edu?id=153671"]}],"custom_fields":[],"ticketed":false,"is_virtual":false,"virtual_url":null,"virtual_video_source":""}],"rest_url":"https:\/\/www.law.georgetown.edu\/wp-json\/tribe\/events\/v1\/events\/?page=1&per_page=3&start_date=2025-01-01 00:00:00&end_date=2028-06-15 23:59:59&status=publish","next_rest_url":"https:\/\/www.law.georgetown.edu\/wp-json\/tribe\/events\/v1\/events\/?per_page=3&start_date=2025-01-01+00%3A00%3A00&end_date=2028-06-15+23%3A59%3A59&status=publish&page=2","total":190,"total_pages":64}
